<svg width="113" height="113" viewBox="0 0 113 113" fill="none" xmlns="http://www.w3.org/2000/svg">
<g clip-path="url(#clip0_106_3901)">
<path d="M74.6046 75.697C83.3277 59.4571 77.2342 39.2205 60.9943 30.4974C44.7543 21.7742 24.5178 27.8678 15.7946 44.1077C7.0715 60.3476 13.1651 80.5842 29.405 89.3073C45.6449 98.0305 65.8815 91.9369 74.6046 75.697Z" fill="#D7E406"/>
<path d="M91.581 63.1891L91.5415 63.2626C91.3321 63.6526 90.9763 63.9433 90.5525 64.071C90.1286 64.1986 89.6715 64.1526 89.2815 63.9432C88.8916 63.7337 88.6008 63.3779 88.4732 62.9541C88.3456 62.5303 88.3916 62.0731 88.601 61.6832L88.6405 61.6097C88.85 61.2197 89.2057 60.929 89.6296 60.8013C90.0534 60.6737 90.5105 60.7197 90.9005 60.9291C91.2904 61.1386 91.5812 61.4944 91.7088 61.9182C91.8364 62.342 91.7904 62.7992 91.581 63.1891ZM86.2886 69.6774C86.185 69.8695 86.0448 70.0394 85.8759 70.1776L85.8174 70.2248C85.6507 70.3778 85.4545 70.4954 85.2409 70.5702C85.0272 70.6451 84.8006 70.6757 84.5748 70.6602C84.3489 70.6447 84.1286 70.5835 83.9272 70.4802C83.7258 70.3769 83.5475 70.2336 83.4032 70.0593C83.2589 69.8849 83.1515 69.6829 83.0877 69.4658C83.0239 69.2486 83.0049 69.0207 83.0319 68.7959C83.059 68.5712 83.1314 68.3543 83.2449 68.1584C83.3584 67.9626 83.5106 67.7919 83.6921 67.6567L83.7625 67.5997C84.0613 67.3541 84.4362 67.2198 84.823 67.22C85.2098 67.2201 85.5846 67.3546 85.8832 67.6005C86.1819 67.8464 86.3858 68.1883 86.4602 68.5679C86.5346 68.9475 86.4748 69.3412 86.291 69.6816L86.2886 69.6774ZM93.9984 55.2588C93.8165 55.5995 93.5222 55.8666 93.1655 56.0146C92.8088 56.1626 92.4118 56.1823 92.0422 56.0703C91.6726 55.9584 91.3533 55.7217 91.1386 55.4007C90.924 55.0797 90.8273 54.6942 90.8651 54.3099L90.8759 54.2209C90.8981 54.0028 90.9631 53.7911 91.0671 53.598C91.1711 53.4049 91.3122 53.2342 91.4822 53.0957C91.6522 52.9571 91.8478 52.8534 92.0579 52.7904C92.2679 52.7275 92.4884 52.7065 92.7066 52.7287C92.9247 52.7509 93.1364 52.8159 93.3295 52.92C93.5226 53.024 93.6933 53.165 93.8318 53.335C93.9704 53.505 94.0741 53.7006 94.1371 53.9107C94.2 54.1208 94.221 54.3412 94.1988 54.5594L92.539 54.3906L94.1921 54.6335C94.1693 54.8527 94.1035 55.0652 93.9984 55.2588ZM78.9135 73.6433C78.7072 74.0285 78.3576 74.317 77.9402 74.4466L77.8924 74.4617C77.4681 74.5929 77.0092 74.5515 76.6153 74.3463C76.2215 74.1411 75.9245 73.7888 75.7889 73.3659C75.7223 73.1587 75.6974 72.9404 75.7155 72.7235C75.7336 72.5066 75.7944 72.2954 75.8944 72.1021C75.9945 71.9088 76.1318 71.7372 76.2984 71.5972C76.465 71.4571 76.6577 71.3514 76.8653 71.2862L76.9452 71.2609C77.2617 71.1619 77.6006 71.1595 77.9185 71.254C78.2363 71.3484 78.5189 71.5354 78.7301 71.7911C78.9412 72.0468 79.0714 72.3597 79.104 72.6897C79.1366 73.0197 79.0706 73.3512 78.9135 73.6433ZM93.1989 46.9248C93.0439 47.2127 92.8078 47.4487 92.5198 47.6036C92.2319 47.7584 91.9048 47.8253 91.5792 47.7959C91.2536 47.7665 90.9437 47.642 90.6882 47.4381C90.4327 47.2341 90.2427 46.9596 90.1418 46.6486L90.1078 46.5356C89.9889 46.1144 90.0402 45.6635 90.2506 45.2798C90.461 44.8961 90.8137 44.6104 91.2328 44.4842C91.6518 44.358 92.1036 44.4015 92.4909 44.6052C92.8782 44.8089 93.17 45.1566 93.3034 45.5733L93.3177 45.6208C93.3873 45.8349 93.4128 46.0609 93.3925 46.2851C93.3722 46.5093 93.3058 46.7267 93.1989 46.9248ZM70.5867 74.5035C70.431 74.7934 70.1931 75.0308 69.9028 75.1858C69.6126 75.3409 69.283 75.4066 68.9554 75.3749L69.1153 73.7141L68.8769 75.3677C68.6566 75.35 68.442 75.2886 68.2456 75.1873C68.0492 75.0859 67.8749 74.9465 67.7328 74.7773C67.5907 74.608 67.4837 74.4122 67.4179 74.2012C67.352 73.9902 67.3288 73.7683 67.3495 73.5482C67.3701 73.3282 67.4343 73.1144 67.5382 72.9194C67.6421 72.7244 67.7838 72.5519 67.9549 72.412C68.126 72.2722 68.3232 72.1677 68.535 72.1046C68.7468 72.0416 68.9691 72.0213 69.1888 72.0448L69.2781 72.0549C69.5519 72.0811 69.815 72.1746 70.0439 72.327C70.2728 72.4795 70.4605 72.6861 70.5903 72.9286C70.7201 73.1711 70.788 73.4419 70.7879 73.7169C70.7877 73.992 70.7196 74.2627 70.5896 74.5051L70.5867 74.5035ZM89.2909 39.5212C89.1828 39.724 89.0333 39.9018 88.8523 40.0434C88.5004 40.3139 88.0566 40.4361 87.6159 40.3839C87.1751 40.3317 86.7722 40.1092 86.4932 39.764C86.2142 39.4188 86.0812 38.9781 86.1227 38.5362C86.1641 38.0943 86.3767 37.6861 86.7151 37.3988C86.8814 37.2578 87.0741 37.1513 87.2819 37.0852C87.4896 37.0191 87.7084 36.9948 87.9257 37.0138C88.1429 37.0327 88.3542 37.0944 88.5474 37.1955C88.7406 37.2965 88.9119 37.4347 89.0514 37.6023L89.1303 37.7006C89.3313 37.9555 89.4535 38.2636 89.482 38.5869C89.5106 38.9103 89.4441 39.235 89.2909 39.5212ZM62.5266 72.0932C62.4291 72.2848 62.2947 72.4552 62.1311 72.5948C61.9676 72.7343 61.7781 72.8402 61.5735 72.9063C61.3689 72.9725 61.1533 72.9975 60.939 72.9801C60.7247 72.9627 60.5159 72.9032 60.3247 72.8049L60.2777 72.7796C59.8848 72.5732 59.5892 72.2203 59.4548 71.7974C59.3204 71.3745 59.3582 70.9157 59.5598 70.5204L59.5689 70.5035C59.771 70.1168 60.1181 69.8258 60.5342 69.6943C60.9502 69.5628 61.4015 69.6014 61.7891 69.8016C62.1864 70.0063 62.4876 70.3586 62.6279 70.7829C62.7683 71.2072 62.7365 71.6696 62.5396 72.0708L62.5266 72.0932ZM82.8441 34.1781C82.6346 34.568 82.2789 34.8588 81.855 34.9864C81.4312 35.114 80.974 35.0681 80.5841 34.8586C80.537 34.8333 80.49 34.8081 80.448 34.777C80.4059 34.7459 80.3565 34.7373 80.3113 34.714C79.914 34.5093 79.6128 34.157 79.4725 33.7327C79.3322 33.3084 79.3639 32.846 79.5609 32.4448C79.6547 32.2485 79.7873 32.0731 79.9506 31.9292C80.1139 31.7854 80.3047 31.676 80.5113 31.6077C80.7179 31.5394 80.9363 31.5135 81.1531 31.5316C81.37 31.5498 81.581 31.6116 81.7734 31.7133L81.8469 31.7528C81.8874 31.7745 81.9285 31.7966 81.969 31.8183C82.0094 31.84 82.0507 31.8566 82.0912 31.8783L82.1647 31.9178C82.3577 32.0216 82.5284 32.1624 82.667 32.3321C82.8056 32.5019 82.9094 32.6973 82.9725 32.9072C83.0356 33.1171 83.0567 33.3374 83.0347 33.5554C83.0127 33.7735 82.9479 33.9851 82.8441 34.1781ZM56.0572 66.8449C55.9555 67.0347 55.8177 67.2026 55.6514 67.3393C55.3111 67.6207 54.8732 67.7557 54.4336 67.7148C53.9939 67.674 53.5884 67.4605 53.3058 67.1213L53.2549 67.0608C53.1147 66.8922 53.0091 66.6977 52.9441 66.4883C52.8791 66.2789 52.856 66.0587 52.8761 65.8404C52.8962 65.622 52.959 65.4098 53.0612 65.2157C53.1633 65.0217 53.3026 64.8497 53.4712 64.7095C53.6398 64.5693 53.8343 64.4637 54.0438 64.3987C54.2532 64.3337 54.4733 64.3106 54.6917 64.3307C54.91 64.3508 55.1223 64.4137 55.3163 64.5158C55.5103 64.6179 55.6823 64.7572 55.8225 64.9258L55.8806 64.994C56.0904 65.2502 56.2191 65.563 56.2506 65.8926C56.282 66.2222 56.2147 66.5537 56.0572 66.8449ZM74.5206 31.6585C74.3653 31.9482 74.128 32.1856 73.8383 32.3409C73.5486 32.4962 73.2195 32.5625 72.8923 32.5315C72.4487 32.4918 72.0383 32.2799 71.7491 31.9413C71.4598 31.6027 71.3147 31.1642 71.3448 30.7199C71.3592 30.5044 71.4162 30.2938 71.5126 30.1005C71.6089 29.9072 71.7426 29.7349 71.906 29.5936C72.0694 29.4523 72.2591 29.3448 72.4643 29.2773C72.6696 29.2099 72.8861 29.1838 73.1014 29.2007C73.1066 29.2034 73.1975 29.2087 73.2039 29.2093C73.6445 29.2507 74.0506 29.4654 74.333 29.8062C74.6153 30.1471 74.7507 30.5861 74.7094 31.0267C74.6893 31.2478 74.6256 31.4629 74.5206 31.6585ZM52.0621 59.4855C51.906 59.7764 51.6671 60.0144 51.3757 60.1695C51.0843 60.3245 50.7534 60.3897 50.425 60.3568C50.0965 60.3238 49.7852 60.1942 49.5305 59.9843C49.2757 59.7744 49.0889 59.4937 48.9936 59.1776L50.5918 58.6958L48.9834 59.1456C48.843 58.7258 48.8751 58.2674 49.0727 57.8712C49.2703 57.4751 49.6172 57.1737 50.037 57.0333C50.4568 56.8929 50.9152 56.925 51.3114 57.1226C51.7075 57.3202 52.0089 57.6671 52.1493 58.0869L52.1896 58.2146C52.317 58.6384 52.2716 59.0958 52.0621 59.4855ZM66.1947 32.5523C65.9946 32.9266 65.6587 33.2099 65.2561 33.3439C65.2451 33.3485 65.1539 33.3772 65.1431 33.378C64.7204 33.5099 64.2627 33.4687 63.8706 33.2632C63.4784 33.0577 63.1839 32.7048 63.0519 32.2822C62.9199 31.8596 62.9612 31.4019 63.1667 31.0097C63.3722 30.6175 63.7251 30.3231 64.1477 30.1911L64.6454 31.7845L64.1946 30.1813C64.5118 30.0748 64.8536 30.066 65.1758 30.1562C65.498 30.2464 65.7856 30.4314 66.0014 30.6871C66.2171 30.9427 66.351 31.2574 66.3858 31.5901C66.4205 31.9229 66.3544 32.2584 66.1961 32.5531L66.1947 32.5523ZM51.1686 51.1502C50.9865 51.4891 50.693 51.7548 50.3377 51.9022C49.9824 52.0496 49.587 52.0697 49.2186 51.9591C48.8501 51.8486 48.5312 51.6141 48.3157 51.2954C48.1002 50.9767 48.0014 50.5934 48.0361 50.2103L48.0376 50.1969C48.0788 49.7567 48.2901 49.3499 48.6264 49.0629C48.9627 48.776 49.3976 48.6314 49.8388 48.6599C50.2721 48.6884 50.6764 48.8877 50.9628 49.2141C51.2493 49.5404 51.3946 49.967 51.3667 50.4004L51.3573 50.5185C51.3368 50.7395 51.2726 50.9542 51.1686 51.1502ZM58.836 36.5478C58.7397 36.7263 58.6116 36.8857 58.4582 37.0183L58.3659 37.0966C58.1977 37.241 58.0025 37.3504 57.7916 37.4185C57.5807 37.4866 57.3583 37.512 57.1375 37.4932C56.9166 37.4745 56.7017 37.4119 56.5053 37.3092C56.3089 37.2065 56.135 37.0656 55.9936 36.895C55.8522 36.7243 55.7462 36.5271 55.6819 36.3151C55.6175 36.103 55.596 35.8802 55.6186 35.6597C55.6413 35.4393 55.7076 35.2255 55.8138 35.031C55.9199 34.8364 56.0638 34.6649 56.2369 34.5266L56.2726 34.4955C56.5675 34.2392 56.943 34.0946 57.3336 34.0867C57.7242 34.0789 58.1052 34.2083 58.4102 34.4525C58.7152 34.6967 58.9249 35.0401 59.0027 35.423C59.0805 35.8059 59.0215 36.2039 58.836 36.5478ZM53.5299 43.1301C53.3205 43.5201 52.9647 43.8108 52.5409 43.9385C52.117 44.0661 51.6599 44.0201 51.2699 43.8107C50.88 43.6012 50.5893 43.2454 50.4616 42.8216C50.334 42.3978 50.38 41.9406 50.5894 41.5507L52.0597 42.3404L50.6064 41.5191L50.6246 41.4853C50.8273 41.0917 51.1781 40.7948 51.5997 40.6599C52.0213 40.5249 52.4793 40.563 52.8728 40.7658C53.2664 40.9685 53.5633 41.3192 53.6982 41.7409C53.8331 42.1625 53.795 42.6204 53.5923 43.014L53.5299 43.1301Z" fill="#669933"/>
<path d="M100.18 63.3524C99.9781 63.7271 99.6411 64.0106 99.2375 64.1451C98.8338 64.2796 98.3941 64.2549 98.0081 64.0759C97.6221 63.897 97.319 63.5775 97.1607 63.1825C97.0025 62.7876 97.001 62.3472 97.1567 61.9512C97.3087 61.5338 97.6188 61.1928 98.02 61.0021C98.4213 60.8114 98.8815 60.7863 99.3011 60.9321C99.5071 61.0041 99.6968 61.1163 99.8592 61.262C100.022 61.4078 100.154 61.5843 100.247 61.7813C100.341 61.9783 100.395 62.192 100.406 62.41C100.417 62.6279 100.384 62.8459 100.31 63.0512L100.265 63.172C100.24 63.2337 100.212 63.2939 100.18 63.3524ZM96.2085 70.6556C96.1701 70.7269 96.1267 70.7953 96.0786 70.8605L96.0281 70.9281C95.8969 71.1037 95.7325 71.2519 95.5441 71.364C95.3558 71.4761 95.1472 71.55 94.9302 71.5815C94.7133 71.6131 94.4923 71.6015 94.2798 71.5476C94.0673 71.4937 93.8675 71.3985 93.6918 71.2673C93.5162 71.1362 93.368 70.9718 93.2559 70.7834C93.1438 70.595 93.0698 70.3864 93.0383 70.1695C93.0068 69.9526 93.0184 69.7315 93.0723 69.5191C93.1262 69.3066 93.2214 69.1068 93.3525 68.9311C93.6179 68.5716 94.0138 68.3308 94.455 68.2604C94.8963 68.19 95.3475 68.2957 95.7115 68.5548C96.0345 68.7856 96.2629 69.1256 96.3542 69.5119C96.4456 69.8982 96.3939 70.3045 96.2085 70.6556ZM101.962 55.1451C101.781 55.482 101.491 55.7469 101.139 55.8955C100.787 56.0442 100.395 56.0675 100.028 55.9617C99.6604 55.8558 99.3407 55.6272 99.1218 55.314C98.903 55.0008 98.7982 54.622 98.825 54.2409C98.8544 53.7949 99.0576 53.3782 99.391 53.0804C99.7243 52.7827 100.161 52.6276 100.608 52.6485C100.824 52.6588 101.037 52.7121 101.233 52.8054C101.429 52.8987 101.604 53.0301 101.749 53.1918C101.893 53.3536 102.004 53.5425 102.075 53.7476C102.146 53.9527 102.175 54.1698 102.161 54.3863L102.155 54.4694C102.139 54.7059 102.073 54.9363 101.962 55.1451ZM90.2837 76.6195C90.1732 76.8253 90.0196 77.0048 89.8333 77.1458L89.7321 77.2231C89.3947 77.4446 88.9881 77.5354 88.5885 77.4782C88.1889 77.4211 87.824 77.22 87.5622 76.9128C87.3004 76.6056 87.1598 76.2134 87.1668 75.8098C87.1738 75.4062 87.3279 75.0191 87.6002 74.7211C87.8724 74.4232 88.2441 74.2349 88.6454 74.1916C89.0467 74.1484 89.45 74.2531 89.7795 74.4862C90.1091 74.7193 90.3421 75.0647 90.435 75.4575C90.5278 75.8503 90.474 76.2635 90.2837 76.6195ZM101.333 46.7657C101.173 47.0609 100.928 47.3011 100.63 47.4548C100.331 47.6085 99.9932 47.6686 99.66 47.6272C99.3268 47.5858 99.0139 47.4449 98.762 47.2229C98.5102 47.0009 98.3311 46.708 98.2483 46.3827L98.2182 46.25C98.1698 46.0346 98.1646 45.8117 98.203 45.5943C98.2413 45.3768 98.3224 45.1692 98.4416 44.9833C98.5608 44.7975 98.7156 44.6371 98.8972 44.5115C99.0788 44.3859 99.2835 44.2976 99.4995 44.2517C99.7155 44.2058 99.9384 44.2032 100.155 44.244C100.372 44.2849 100.579 44.3684 100.764 44.4897C100.948 44.611 101.107 44.7677 101.23 44.9507C101.354 45.1338 101.439 45.3395 101.483 45.556L99.8509 45.9032L101.491 45.5887C101.583 45.9871 101.527 46.4056 101.333 46.7657ZM82.9207 80.6477C82.7252 81.0113 82.402 81.2895 82.0133 81.4287L81.4508 79.8572L81.982 81.4393C81.5729 81.5891 81.1214 81.573 80.724 81.3944C80.3266 81.2158 80.0148 80.8888 79.8552 80.4834C79.6956 80.078 79.7009 79.6262 79.87 79.2246C80.039 78.8231 80.3584 78.5035 80.7599 78.3343L80.8879 78.2865C81.2055 78.1728 81.5502 78.158 81.8765 78.2441C82.2027 78.3302 82.4952 78.5132 82.7153 78.7689C82.9354 79.0246 83.0729 79.341 83.1096 79.6764C83.1462 80.0118 83.0804 80.3505 82.9207 80.6477ZM98.3868 38.9124C98.2438 39.1772 98.0318 39.3985 97.7734 39.5527C97.5149 39.7069 97.2195 39.7884 96.9186 39.7884C96.6176 39.7885 96.3222 39.7072 96.0637 39.5531C95.8052 39.399 95.5931 39.1778 95.45 38.913C95.2374 38.5226 95.1859 38.0644 95.3064 37.6365C95.4269 37.2085 95.7099 36.8446 96.095 36.6224C96.2819 36.5144 96.4884 36.4446 96.7025 36.4169C96.9166 36.3892 97.1341 36.4042 97.3423 36.4611C97.5505 36.518 97.7454 36.6156 97.9157 36.7483C98.086 36.881 98.2283 37.0462 98.3343 37.2342C98.3417 37.2381 98.3822 37.3215 98.3886 37.3306C98.5189 37.5734 98.587 37.8446 98.587 38.1201C98.5869 38.3956 98.5187 38.6668 98.3883 38.9095L98.3868 38.9124ZM74.7038 82.4564C74.5728 82.7016 74.3817 82.9095 74.1485 83.0609C73.9153 83.2123 73.6476 83.3021 73.3703 83.322L73.3385 83.3248C72.897 83.3571 72.4605 83.2154 72.1222 82.93C71.7839 82.6445 71.5708 82.238 71.5284 81.7974C71.5074 81.5821 71.5291 81.3647 71.5923 81.1578C71.6556 80.9509 71.7591 80.7585 71.8969 80.5917C72.0348 80.4249 72.2042 80.287 72.3955 80.1859C72.5868 80.0848 72.7962 80.0225 73.0116 80.0025C73.0225 80.0017 73.0906 79.9966 73.1018 79.9951C73.4011 79.9728 73.7008 80.0313 73.9698 80.1644C74.2387 80.2976 74.467 80.5005 74.6307 80.752C74.7944 81.0035 74.8875 81.2944 74.9004 81.5942C74.9132 81.894 74.8454 82.1918 74.7038 82.4564ZM93.3369 32.2045C93.213 32.4355 93.0365 32.6341 92.8215 32.7841C92.6066 32.9342 92.3594 33.0315 92.0998 33.0682C91.8403 33.1048 91.5757 33.0799 91.3277 32.9953C91.0796 32.9107 90.8549 32.7689 90.6718 32.5813C90.36 32.2652 90.1836 31.84 90.1801 31.396C90.1767 30.952 90.3464 30.5242 90.6533 30.2033C90.802 30.0463 90.9803 29.9204 91.178 29.8328C91.3756 29.7452 91.5887 29.6977 91.8048 29.693C92.021 29.6883 92.2359 29.7266 92.4372 29.8055C92.6384 29.8845 92.822 30.0026 92.9774 30.153L93.0634 30.238C93.3127 30.4925 93.4741 30.8201 93.5239 31.1729C93.5737 31.5257 93.5093 31.8851 93.3401 32.1987L93.3369 32.2045ZM66.292 81.87C66.1281 82.1831 65.8661 82.4338 65.546 82.5837C65.226 82.7337 64.8656 82.7745 64.5201 82.7C64.5201 82.7 64.4348 82.6825 64.4285 82.6801C64.2145 82.6325 64.0121 82.5432 63.8326 82.4173C63.6532 82.2915 63.5003 82.1315 63.3827 81.9465C63.2651 81.7616 63.1851 81.5553 63.1472 81.3394C63.1093 81.1235 63.1144 80.9023 63.162 80.6884C63.2096 80.4744 63.2989 80.272 63.4248 80.0925C63.5506 79.9131 63.7106 79.7602 63.8955 79.6426C64.0805 79.525 64.2868 79.445 64.5027 79.4071C64.7185 79.3693 64.9398 79.3743 65.1537 79.4219C65.5894 79.5173 65.9703 79.7795 66.215 80.1525C66.4596 80.5254 66.5485 80.9793 66.4625 81.4169C66.4271 81.5728 66.3709 81.7233 66.2952 81.8641L66.292 81.87ZM86.5939 27.1977C86.3844 27.5877 86.0286 27.8784 85.6048 28.006C85.181 28.1337 84.7238 28.0877 84.3339 27.8782C83.9395 27.668 83.6433 27.3113 83.5092 26.885C83.3751 26.4587 83.4136 25.9967 83.6166 25.5985C83.7153 25.4052 83.8514 25.2335 84.0172 25.0934C84.1829 24.9533 84.3749 24.8476 84.5819 24.7824C84.7889 24.7173 85.0068 24.694 85.2229 24.714C85.439 24.7339 85.649 24.7967 85.8406 24.8987L85.9141 24.9381C86.3038 25.1477 86.5943 25.5035 86.7218 25.9272C86.8492 26.3509 86.8032 26.8079 86.5939 27.1977ZM58.4417 78.8894C58.343 79.0826 58.2069 79.2543 58.0412 79.3944C57.8756 79.5344 57.6837 79.6402 57.4768 79.7053C57.2698 79.7705 57.052 79.7939 56.836 79.774C56.6199 79.7541 56.41 79.6914 56.2184 79.5896L56.1706 79.564C55.782 79.3522 55.492 78.9963 55.3634 78.5728C55.2347 78.1493 55.2776 77.6922 55.4828 77.3L55.4855 77.2949C55.5871 77.1021 55.7258 76.9313 55.8937 76.7924C56.0615 76.6535 56.2552 76.5493 56.4636 76.4856C56.672 76.4219 56.8909 76.4002 57.1077 76.4215C57.3246 76.4429 57.535 76.507 57.727 76.6101C58.1208 76.8208 58.4163 77.1775 58.5499 77.6037C58.6836 78.0299 58.6447 78.4915 58.4417 78.8894ZM79.1392 24.3851C78.9677 24.7039 78.6972 24.9583 78.3685 25.11C78.0398 25.2617 77.6707 25.3024 77.3169 25.2259L77.2119 25.2027C76.7805 25.1032 76.4063 24.8364 76.1715 24.461C75.9368 24.0856 75.8608 23.6324 75.9603 23.2009C76.0597 22.7695 76.3265 22.3953 76.7019 22.1605C77.0773 21.9258 77.5306 21.8498 77.962 21.9493L78.021 21.963C78.4533 22.0561 78.8309 22.317 79.071 22.6884C79.3111 23.0598 79.394 23.5113 79.3014 23.9437C79.2687 24.0978 79.2141 24.2465 79.1392 24.3851ZM51.7577 73.8783C51.6795 74.0228 51.5807 74.1551 51.4643 74.271C51.1508 74.5835 50.726 74.7585 50.2834 74.7578C49.8408 74.757 49.4166 74.5804 49.1042 74.2669L49.0603 74.2234C48.7436 73.9141 48.5627 73.4917 48.5574 73.049C48.5548 72.8299 48.5954 72.6123 48.6769 72.4088C48.7584 72.2054 48.8792 72.0199 49.0323 71.8631C49.1854 71.7063 49.368 71.5811 49.5695 71.4949C49.771 71.4086 49.9875 71.3629 50.2067 71.3603C50.4259 71.3577 50.6434 71.3983 50.8469 71.4797C51.0504 71.5612 51.2358 71.682 51.3926 71.8351L51.4685 71.9109C51.7214 72.1644 51.886 72.4925 51.9381 72.8468C51.9902 73.2011 51.9269 73.5627 51.7577 73.8783ZM70.77 23.707C70.6356 23.9573 70.4395 24.1691 70.2004 24.3224C69.9612 24.4758 69.6868 24.5655 69.4033 24.5832C68.9567 24.6132 68.5161 24.4665 68.1767 24.1747C67.8373 23.8829 67.6262 23.4693 67.589 23.0232C67.5707 22.8071 67.5957 22.5894 67.6624 22.383C67.7291 22.1765 67.8363 21.9855 67.9776 21.8209C68.1189 21.6563 68.2915 21.5214 68.4855 21.4242C68.6794 21.327 68.8908 21.2694 69.1072 21.2547L69.1907 21.2493C69.4876 21.2307 69.7842 21.2918 70.0496 21.4262C70.315 21.5607 70.5397 21.7637 70.7003 22.0142C70.8609 22.2647 70.9516 22.5536 70.963 22.851C70.9744 23.1483 70.9061 23.4433 70.7652 23.7054L70.77 23.707ZM46.6994 67.128C46.5584 67.3881 46.3503 67.6057 46.0967 67.7582C45.8431 67.9106 45.5533 67.9924 45.2574 67.9949C44.9616 67.9975 44.6704 67.9207 44.4142 67.7726C44.1581 67.6245 43.9463 67.4106 43.8008 67.1529L43.7576 67.0729C43.6505 66.8797 43.5828 66.6671 43.5584 66.4476C43.5341 66.2281 43.5536 66.0059 43.6157 65.7939C43.6779 65.5819 43.7815 65.3844 43.9206 65.2128C44.0597 65.0412 44.2314 64.8989 44.4259 64.7942C44.6204 64.6895 44.8337 64.6244 45.0536 64.6027C45.2734 64.5811 45.4953 64.6033 45.7065 64.668C45.9177 64.7328 46.1139 64.8388 46.2838 64.98C46.4537 65.1212 46.5939 65.2947 46.6962 65.4904C46.832 65.7419 46.9033 66.023 46.9039 66.3088C46.9044 66.5946 46.8342 66.876 46.6994 67.128ZM62.548 25.423C62.3593 25.7759 62.0492 26.0488 61.6751 26.1911L61.563 26.2323C61.355 26.3149 61.1325 26.3548 60.9087 26.3496C60.6849 26.3445 60.4645 26.2944 60.2605 26.2023C60.0565 26.1102 59.8731 25.978 59.7212 25.8136C59.5694 25.6493 59.4521 25.456 59.3764 25.2453C59.3008 25.0347 59.2682 24.811 59.2808 24.5875C59.2933 24.3641 59.3507 24.1454 59.4495 23.9446C59.5483 23.7437 59.6864 23.5648 59.8558 23.4185C60.0251 23.2721 60.2222 23.1613 60.4352 23.0927L61.0023 24.6627L60.4831 23.0758C60.8012 22.9537 61.149 22.9318 61.4799 23.0132C61.8107 23.0946 62.1087 23.2753 62.3339 23.531C62.559 23.7867 62.7005 24.1052 62.7393 24.4437C62.7781 24.7822 62.7124 25.1245 62.551 25.4245L62.548 25.423ZM43.7954 59.2274C43.637 59.5252 43.3915 59.7676 43.0916 59.922C42.7917 60.0764 42.4518 60.1355 42.1174 60.0915C41.783 60.0474 41.47 59.9023 41.2203 59.6754C40.9707 59.4486 40.7963 59.151 40.7205 58.8223L40.7034 58.7411C40.6522 58.5248 40.6448 58.3003 40.6815 58.081C40.7183 57.8617 40.7985 57.652 40.9174 57.4641C41.0364 57.2763 41.1917 57.1141 41.3742 56.987C41.5567 56.86 41.7627 56.7708 41.9802 56.7245C42.1977 56.6782 42.4222 56.6759 42.6406 56.7176C42.859 56.7593 43.0669 56.8443 43.252 56.9674C43.4371 57.0906 43.5958 57.2495 43.7186 57.4349C43.8415 57.6202 43.926 57.8282 43.9673 58.0467C44.0522 58.4482 43.9912 58.8668 43.7954 59.2274ZM55.1403 29.3827C55.0285 29.5906 54.8735 29.7721 54.6857 29.9152L54.583 29.9917C54.2243 30.2418 53.7817 30.341 53.3505 30.2682C52.9194 30.1953 52.534 29.9561 52.2774 29.602C52.0207 29.248 51.9133 28.8073 51.9782 28.3749C52.0431 27.9424 52.2752 27.5527 52.6244 27.2896L53.6037 28.6406L52.6561 27.2659C52.9592 27.0335 53.3328 26.9122 53.7146 26.922C54.0963 26.9319 54.4632 27.0724 54.7539 27.3201C55.0445 27.5678 55.2415 27.9077 55.3118 28.283C55.3822 28.6584 55.3216 29.0465 55.1403 29.3827ZM43.242 50.8285C43.0902 51.118 42.8573 51.3569 42.572 51.5161C42.2866 51.6754 41.961 51.7481 41.635 51.7253C41.4204 51.7122 41.2104 51.6569 41.0172 51.5625C40.8241 51.4681 40.6514 51.3364 40.5092 51.1751C40.3671 51.0138 40.2581 50.826 40.1887 50.6225C40.1193 50.419 40.0907 50.2038 40.1047 49.9893L40.1148 49.8611C40.1572 49.4205 40.3728 49.0148 40.7143 48.7331C41.0559 48.4515 41.4953 48.3171 41.9359 48.3595C42.3765 48.4018 42.7822 48.6175 43.0639 48.959C43.3455 49.3005 43.4799 49.7399 43.4375 50.1805C43.4145 50.407 43.3471 50.6266 43.239 50.827L43.242 50.8285ZM49.1638 35.2752C49.1174 35.3614 49.0638 35.4435 49.0036 35.5207C48.7304 35.8698 48.332 36.0988 47.8929 36.1593C47.4538 36.2198 47.0083 36.1069 46.651 35.8446C46.4778 35.7171 46.3315 35.5567 46.2203 35.3726C46.1091 35.1886 46.0353 34.9844 46.0031 34.7718C45.9708 34.5592 45.9807 34.3423 46.0323 34.1336C46.0839 33.9248 46.1761 33.7283 46.3036 33.5551L46.3809 33.4536C46.639 33.1253 47.0108 32.9058 47.4229 32.8382C47.835 32.7707 48.2575 32.8601 48.6069 33.0888C48.9563 33.3175 49.2072 33.6689 49.3102 34.0736C49.4132 34.4783 49.3614 34.9073 49.1638 35.2752ZM45.0581 42.6984C44.9657 42.8973 44.8351 43.076 44.6737 43.2243C44.5122 43.3727 44.3231 43.4878 44.1172 43.5631C43.7013 43.7151 43.242 43.6957 42.8404 43.5092C42.4388 43.3226 42.1278 42.9841 41.9758 42.5682C41.8237 42.1523 41.8431 41.6931 42.0297 41.2915L43.5828 41.9041L42.0459 41.2613C42.1958 40.8448 42.505 40.5049 42.9055 40.3163C43.306 40.1278 43.765 40.106 44.1815 40.2559C44.5981 40.4058 44.938 40.715 45.1266 41.1155C45.3151 41.516 45.3368 41.975 45.187 42.3916L45.1381 42.5178C45.1142 42.5792 45.0865 42.639 45.0552 42.6968L45.0581 42.6984Z" fill="#669933"/>
<path d="M79.2218 54.3234C79.0173 54.7072 78.6766 55.0007 78.2667 55.1461C77.8568 55.2915 77.4073 55.2784 77.0067 55.1093C76.606 54.9402 76.283 54.6273 76.1012 54.2322C75.9195 53.8371 75.8921 53.3882 76.0244 52.9739C76.1567 52.5596 76.4392 52.2098 76.8163 51.9932C77.1934 51.7765 77.6379 51.7088 78.0625 51.8032C78.487 51.8977 78.8609 52.1475 79.1106 52.5035C79.3604 52.8596 79.4679 53.2962 79.4121 53.7275L79.3802 53.8998C79.3466 54.0475 79.2934 54.19 79.2218 54.3234ZM73.554 59.7823C73.4369 60.0018 73.2702 60.191 73.0672 60.3348C72.8641 60.4786 72.6303 60.5731 72.3844 60.6108L72.2543 60.629C72.0369 60.6569 71.8161 60.6416 71.6047 60.5841C71.3932 60.5266 71.195 60.4281 71.0216 60.294C70.8482 60.16 70.7029 59.9931 70.594 59.8029C70.4851 59.6127 70.4147 59.4029 70.3869 59.1855C70.3591 58.9681 70.3743 58.7474 70.4318 58.5359C70.4893 58.3244 70.5879 58.1263 70.7219 57.9529C70.856 57.7795 71.0228 57.6342 71.213 57.5253C71.4032 57.4163 71.613 57.346 71.8304 57.3181C72.139 57.2736 72.4538 57.3156 72.7399 57.4395C73.026 57.5633 73.2721 57.7642 73.4508 58.0196C73.6295 58.2751 73.7337 58.5751 73.752 58.8863C73.7702 59.1975 73.7017 59.5077 73.554 59.7823ZM75.8574 47.19L75.8455 47.2121C75.6305 47.5989 75.2707 47.8845 74.8452 48.006C74.4197 48.1275 73.9633 48.0751 73.5764 47.8602C73.5492 47.8456 73.522 47.831 73.4956 47.8168C73.4691 47.8026 73.4603 47.7978 73.4426 47.7883C73.0423 47.5898 72.7359 47.242 72.5894 46.8198C72.4429 46.3976 72.468 45.9348 72.6594 45.531C72.7523 45.335 72.8833 45.1595 73.0448 45.0146C73.2062 44.8698 73.3949 44.7585 73.5997 44.6873C73.8046 44.6161 74.0216 44.5864 74.2381 44.5998C74.4545 44.6133 74.6662 44.6698 74.8606 44.7658L74.9341 44.8053C74.965 44.8219 74.9959 44.8385 75.026 44.8547C75.0562 44.8709 75.0753 44.8811 75.0995 44.8942L75.1944 44.9451C75.5769 45.1573 75.8609 45.5112 75.9851 45.9306C76.1093 46.3501 76.0639 46.8015 75.8586 47.1878L75.8574 47.19ZM66.5542 56.1228C66.4114 56.3874 66.1992 56.6082 65.9405 56.7614C65.6817 56.9147 65.3862 56.9946 65.0855 56.9927C64.7847 56.9908 64.4902 56.9072 64.2334 56.7506C63.9766 56.5941 63.7673 56.3707 63.6278 56.1043L63.5827 56.0119C63.4859 55.8153 63.4287 55.6015 63.4145 55.3828C63.4003 55.1641 63.4293 54.9447 63.4998 54.7372C63.5704 54.5297 63.6811 54.3381 63.8257 54.1734C63.9703 54.0087 64.1459 53.8741 64.3425 53.7773C64.5392 53.6804 64.7529 53.6233 64.9716 53.6091C65.1903 53.5948 65.4097 53.6238 65.6172 53.6944C65.8247 53.7649 66.0163 53.8757 66.181 54.0203C66.3457 54.1649 66.4803 54.3405 66.5771 54.5371C66.7009 54.7839 66.7634 55.0568 66.7594 55.3327C66.7554 55.6087 66.685 55.8797 66.5542 56.1228ZM67.8665 48.2837C67.7875 48.4305 67.6868 48.5645 67.5677 48.6811C67.2524 48.9973 66.8254 49.1769 66.3789 49.1812C65.9324 49.1855 65.502 49.0142 65.1806 48.7042C65.0249 48.5534 64.9008 48.3732 64.8153 48.1741C64.7299 47.9749 64.6849 47.7607 64.6829 47.544C64.681 47.3273 64.7221 47.1124 64.8039 46.9117C64.8858 46.711 65.0067 46.5286 65.1596 46.375L65.2226 46.3142C65.5068 46.0329 65.8825 45.8631 66.2814 45.8355C66.6803 45.8079 67.0758 45.9245 67.396 46.1639C67.7162 46.4034 67.9398 46.7498 68.0261 47.1402C68.1124 47.5306 68.0557 47.939 67.8662 48.2911L67.8665 48.2837Z" fill="#669933"/>
<path d="M83.6272 62.1845C83.5728 62.2861 83.5081 62.3818 83.434 62.47L82.1561 61.3962L83.4104 62.4981C83.1338 62.8399 82.7334 63.0588 82.2963 63.1071C81.8593 63.1554 81.4208 63.0292 81.0762 62.756C80.7316 62.4828 80.5088 62.0847 80.4561 61.6481C80.4035 61.2115 80.5252 60.7718 80.795 60.4245L80.8782 60.3224C81.1437 60.0061 81.5171 59.7994 81.9261 59.7424C82.3351 59.6853 82.7507 59.7819 83.0926 60.0135C83.4345 60.2451 83.6784 60.5953 83.7771 60.9963C83.8759 61.3972 83.8224 61.8206 83.6272 62.1845ZM86.8168 54.6045C86.6344 54.9457 86.3392 55.2129 85.9817 55.3605C85.6241 55.5081 85.2264 55.5269 84.8565 55.4137C84.4866 55.3004 84.1675 55.0623 83.9538 54.7398C83.7401 54.4174 83.645 54.0307 83.6849 53.646C83.7289 53.2013 83.9456 52.7916 84.2883 52.505C84.6311 52.2183 85.0726 52.0776 85.5181 52.1129C85.7344 52.1301 85.9452 52.1902 86.138 52.2898C86.3309 52.3894 86.5019 52.5264 86.6412 52.6928C86.7805 52.8593 86.8852 53.0518 86.9492 53.2592C87.0132 53.4666 87.0352 53.6846 87.014 53.9006L87.0056 53.9832C86.9843 54.2008 86.9201 54.4119 86.8168 54.6045ZM76.7071 66.7793C76.6037 66.9726 76.463 67.1435 76.2933 67.2822C76.1235 67.4208 75.928 67.5246 75.718 67.5874L75.2369 65.9896L75.6547 67.6065C75.2322 67.7384 74.7745 67.697 74.3825 67.4915C73.9904 67.2859 73.6961 66.9331 73.5642 66.5105C73.4323 66.088 73.4736 65.6303 73.6792 65.2383C73.8847 64.8462 74.2375 64.5519 74.6601 64.42L74.7561 64.3911C75.0722 64.2959 75.4093 64.2967 75.7249 64.3931C76.0405 64.4896 76.3205 64.6775 76.5293 64.933C76.7382 65.1886 76.8666 65.5003 76.8983 65.8288C76.93 66.1573 76.8632 66.4886 76.7071 66.7793ZM85.2598 46.4481C85.1173 46.7136 84.9056 46.9356 84.6471 47.0904C84.3887 47.2453 84.0931 47.3273 83.7917 47.3278C83.4904 47.3282 83.1946 47.2471 82.9357 47.093C82.6768 46.9388 82.4644 46.7175 82.3211 46.4524C82.3169 46.4444 82.2741 46.3637 82.2695 46.3546C82.1655 46.1601 82.1011 45.9469 82.0799 45.7274C82.0588 45.5079 82.0814 45.2864 82.1464 45.0757C82.2114 44.8649 82.3175 44.6692 82.4586 44.4997C82.5997 44.3302 82.773 44.1904 82.9685 44.0883C83.164 43.9862 83.3778 43.9238 83.5975 43.9048C83.8172 43.8858 84.0385 43.9106 84.2486 43.9776C84.4587 44.0447 84.6534 44.1527 84.8215 44.2954C84.9896 44.4382 85.1277 44.6128 85.2279 44.8093L83.7493 45.5818L85.2568 44.8561C85.3895 45.1002 85.4591 45.3736 85.4594 45.6515C85.4597 45.9294 85.3906 46.2029 85.2583 46.4473L85.2598 46.4481ZM68.3567 66.763C68.1817 67.0993 67.8942 67.3636 67.5444 67.51C67.1946 67.6563 66.8046 67.6753 66.4422 67.5637L66.3982 67.5505C65.9737 67.4192 65.6181 67.1258 65.4087 66.734C65.1992 66.3422 65.1527 65.8835 65.2793 65.4576C65.3413 65.2487 65.444 65.0541 65.5816 64.8851C65.7191 64.716 65.8888 64.5759 66.0807 64.4728C66.2727 64.3697 66.4832 64.3056 66.7001 64.2842C66.9169 64.2629 67.1359 64.2847 67.3443 64.3484C67.7722 64.478 68.1321 64.7703 68.3466 65.1626C68.561 65.5549 68.6129 66.0157 68.491 66.4458C68.4567 66.5557 68.4117 66.6619 68.3567 66.763ZM79.4331 40.5288L79.4213 40.5508C79.2061 40.9375 78.8461 41.2229 78.4205 41.3442C77.9949 41.4656 77.5386 41.4129 77.1518 41.1978C76.7641 40.984 76.4747 40.6278 76.3448 40.2045C76.215 39.7812 76.2548 39.324 76.4559 38.9296L76.4614 38.9193C76.5611 38.7277 76.6977 38.5577 76.8634 38.4193C77.0291 38.2808 77.2206 38.1765 77.4268 38.1125C77.6331 38.0484 77.8499 38.0259 78.0649 38.0461C78.2799 38.0664 78.4888 38.129 78.6794 38.2304L78.7743 38.2814C79.1571 38.4945 79.4408 38.8496 79.5641 39.2701C79.6874 39.6906 79.6403 40.1427 79.4331 40.5288ZM74.1355 38.8672C73.978 39.1604 73.7363 39.3998 73.4417 39.5547C73.147 39.7095 72.8128 39.7727 72.4819 39.7361C72.0376 39.69 71.6293 39.4711 71.3449 39.1266C71.0605 38.7821 70.9229 38.3397 70.9618 37.8947C70.9805 37.6784 71.0421 37.4681 71.143 37.2758C71.2438 37.0836 71.3819 36.9134 71.5492 36.7751C71.7165 36.6368 71.9097 36.5332 72.1174 36.4703C72.3252 36.4074 72.5434 36.3865 72.7593 36.4088L72.8486 36.4189C73.1202 36.4486 73.3804 36.5446 73.6063 36.6984C73.8321 36.8522 74.0168 37.0591 74.144 37.3009C74.2712 37.5427 74.3371 37.8121 74.3359 38.0853C74.3346 38.3586 74.2664 38.6273 74.137 38.868L74.1355 38.8672ZM61.5009 62.1228C61.3713 62.3619 61.1852 62.5656 60.9588 62.7163C60.7324 62.8671 60.4727 62.9602 60.2021 62.9876C59.9315 63.015 59.6583 62.9759 59.4063 62.8736C59.1543 62.7714 58.9312 62.6091 58.7562 62.4009L58.6633 62.2846C58.4928 62.0412 58.3903 61.7567 58.3666 61.4605C58.3428 61.1642 58.3986 60.867 58.5281 60.5995C58.6577 60.3321 58.8563 60.104 59.1035 59.939C59.3506 59.774 59.6374 59.678 59.9341 59.6609C60.2308 59.6438 60.5267 59.7062 60.7912 59.8417C61.0557 59.9773 61.2792 60.181 61.4386 60.4318C61.598 60.6826 61.6876 60.9714 61.698 61.2684C61.7085 61.5654 61.6394 61.8598 61.498 62.1212L61.5009 62.1228ZM65.9727 40.4132C65.815 40.7072 65.5723 40.9469 65.2764 41.101C64.8819 41.309 64.4217 41.3542 63.9943 41.227C63.5669 41.0997 63.2063 40.8102 62.9898 40.4203C62.8845 40.2311 62.8178 40.0229 62.7937 39.8078C62.7696 39.5926 62.7885 39.3748 62.8494 39.167C62.9102 38.9593 63.0118 38.7657 63.1481 38.5975C63.2844 38.4293 63.4529 38.2899 63.6436 38.1874L63.7308 38.1396C64.0474 37.9741 64.4086 37.9145 64.7615 37.9696C65.1144 38.0247 65.4404 38.1916 65.6914 38.4457C65.9424 38.6998 66.1053 39.0278 66.156 39.3813C66.2068 39.7348 66.1428 40.0954 65.9735 40.4098L65.9727 40.4132ZM58.3636 54.4398C58.1942 54.7555 57.9278 55.0084 57.6037 55.161C57.2795 55.3137 56.9149 55.3579 56.5636 55.2873C56.2124 55.2166 55.8932 55.0348 55.6533 54.7687C55.4133 54.5026 55.2654 54.1664 55.2314 53.8097L56.8925 53.6515L55.2241 53.7404C55.1784 53.3 55.3095 52.8595 55.5887 52.5157C55.8678 52.172 56.2721 51.9533 56.7125 51.9076C57.1529 51.8619 57.5934 51.9931 57.9372 52.2722C58.2809 52.5513 58.4997 52.9556 58.5453 53.396L58.5529 53.4948C58.5847 53.8216 58.5188 54.1505 58.3636 54.4398ZM60.0521 46.2297L60.0126 46.3033C59.8032 46.6932 59.4474 46.984 59.0236 47.1116C58.5998 47.2392 58.1426 47.1932 57.7527 46.9838C57.3627 46.7743 57.072 46.4186 56.9443 45.9947C56.8167 45.5709 56.8627 45.1137 57.0721 44.7238L57.1116 44.6503C57.3211 44.2603 57.6769 43.9696 58.1007 43.842C58.5245 43.7143 58.9817 43.7603 59.3716 43.9698C59.7616 44.1792 60.0523 44.535 60.1799 44.9588C60.3076 45.3826 60.2616 45.8398 60.0521 46.2297Z" fill="#669933"/>
</g>
<defs>
<clipPath id="clip0_106_3901">
<rect width="83.4462" height="83.4462" fill="white" transform="translate(0 73.5127) rotate(-61.7579)"/>
</clipPath>
</defs>
</svg>
