<svg class="lex-text-and-image-and-button__second-svg" width="96" height="92" viewBox="0 0 96 92" fill="none" xmlns="http://www.w3.org/2000/svg">
    <circle cx="45.9574" cy="45.9574" r="45.4574" stroke="#D7E406"/>
    <circle cx="45.9573" cy="45.9574" r="24.1702" fill="#D7E406"/>
    <circle cx="78.2978" cy="23.8298" r="17.7021" fill="#81B041"/>
</svg>